what,kind,bundleId,bundleVersion,description,time
deactivated,workbench,org.eclipse.ui.workbench,3.7.1.v20120104-1859,"",1503818133046
activated,workbench,org.eclipse.ui.workbench,3.7.1.v20120104-1859,"",1503818143918
deactivated,workbench,org.eclipse.ui.workbench,3.7.1.v20120104-1859,"",1503818152872
activated,workbench,org.eclipse.ui.workbench,3.7.1.v20120104-1859,"",1503818189723
executed,command,org.eclipse.ui,3.7.0.v20110928-1505,"org.eclipse.ui.file.save",1503818247321
executed,command,org.eclipse.ui,3.7.0.v20110928-1505,"org.eclipse.ui.edit.copy",1503818263112
executed,command,org.eclipse.ui,3.7.0.v20110928-1505,"org.eclipse.ui.edit.paste",1503818266386
executed,command,org.eclipse.ui,3.7.0.v20110928-1505,"org.eclipse.ui.file.save",1503818270899
activated,view,com.altera.sbtgui.launch,13.0.0.156,"com.altera.sbtgui.launch.hardware.ByteStreamConsoleView",1503818274902
activated,view,org.eclipse.ui.console,3.5.100.v20111007_r372,"org.eclipse.ui.console.ConsoleView",1503818275753
activated,view,com.altera.sbtgui.launch,13.0.0.156,"com.altera.sbtgui.launch.hardware.ByteStreamConsoleView",1503818279876
deactivated,workbench,org.eclipse.ui.workbench,3.7.1.v20120104-1859,"",1503818284128
activated,workbench,org.eclipse.ui.workbench,3.7.1.v20120104-1859,"",1503818284799
deactivated,workbench,org.eclipse.ui.workbench,3.7.1.v20120104-1859,"",1503818285659
activated,workbench,org.eclipse.ui.workbench,3.7.1.v20120104-1859,"",1503818296405
deactivated,workbench,org.eclipse.ui.workbench,3.7.1.v20120104-1859,"",1503818296728
activated,workbench,org.eclipse.ui.workbench,3.7.1.v20120104-1859,"",1503818319591
deactivated,workbench,org.eclipse.ui.workbench,3.7.1.v20120104-1859,"",1503818319921
activated,workbench,org.eclipse.ui.workbench,3.7.1.v20120104-1859,"",1503818323471
deactivated,workbench,org.eclipse.ui.workbench,3.7.1.v20120104-1859,"",1503818323711
activated,workbench,org.eclipse.ui.workbench,3.7.1.v20120104-1859,"",1503818339612
activated,editor,org.eclipse.cdt.ui,5.3.2.201202111925,"org.eclipse.cdt.ui.editor.CEditor",1503818339642
deactivated,workbench,org.eclipse.ui.workbench,3.7.1.v20120104-1859,"",1503819282214
activated,workbench,org.eclipse.ui.workbench,3.7.1.v20120104-1859,"",1503819293974
deactivated,workbench,org.eclipse.ui.workbench,3.7.1.v20120104-1859,"",1503819294684
activated,workbench,org.eclipse.ui.workbench,3.7.1.v20120104-1859,"",1503819296220
deactivated,workbench,org.eclipse.ui.workbench,3.7.1.v20120104-1859,"",1503819296450
activated,workbench,org.eclipse.ui.workbench,3.7.1.v20120104-1859,"",1503819313413
deactivated,workbench,org.eclipse.ui.workbench,3.7.1.v20120104-1859,"",1503819406594
activated,view,com.altera.sbtgui.launch,13.0.0.156,"com.altera.sbtgui.launch.hardware.ByteStreamConsoleView",1503819416100
activated,workbench,org.eclipse.ui.workbench,3.7.1.v20120104-1859,"",1503819416130
activated,editor,org.eclipse.cdt.ui,5.3.2.201202111925,"org.eclipse.cdt.ui.editor.CEditor",1503819416140
deactivated,workbench,org.eclipse.ui.workbench,3.7.1.v20120104-1859,"",1503819424163
executed,command,org.eclipse.ui,3.7.0.v20110928-1505,"org.eclipse.ui.edit.findReplace",1503819424173
activated,workbench,org.eclipse.ui.workbench,3.7.1.v20120104-1859,"",1503819429407
activated,view,com.altera.sbtgui.launch,13.0.0.156,"com.altera.sbtgui.launch.hardware.ByteStreamConsoleView",1503819429427
activated,editor,org.eclipse.cdt.ui,5.3.2.201202111925,"org.eclipse.cdt.ui.editor.CEditor",1503819429707
deactivated,workbench,org.eclipse.ui.workbench,3.7.1.v20120104-1859,"",1503819430567
executed,command,org.eclipse.ui,3.7.0.v20110928-1505,"org.eclipse.ui.edit.findReplace",1503819430587
activated,workbench,org.eclipse.ui.workbench,3.7.1.v20120104-1859,"",1503819432659
deactivated,workbench,org.eclipse.ui.workbench,3.7.1.v20120104-1859,"",1503819435671
executed,command,org.eclipse.ui,3.7.0.v20110928-1505,"org.eclipse.ui.edit.findReplace",1503819435701
activated,workbench,org.eclipse.ui.workbench,3.7.1.v20120104-1859,"",1503819439596
deactivated,workbench,org.eclipse.ui.workbench,3.7.1.v20120104-1859,"",1503819451884
executed,command,org.eclipse.ui,3.7.0.v20110928-1505,"org.eclipse.ui.edit.findReplace",1503819451904
activated,workbench,org.eclipse.ui.workbench,3.7.1.v20120104-1859,"",1503819458178
executed,command,org.eclipse.ui,3.7.0.v20110928-1505,"org.eclipse.ui.edit.copy",1503819459098
deactivated,workbench,org.eclipse.ui.workbench,3.7.1.v20120104-1859,"",1503819459718
activated,workbench,org.eclipse.ui.workbench,3.7.1.v20120104-1859,"",1503819460759
executed,command,org.eclipse.ui,3.7.0.v20110928-1505,"org.eclipse.ui.file.save",1503819525245
activated,view,com.altera.sbtgui.launch,13.0.0.156,"com.altera.sbtgui.launch.hardware.ByteStreamConsoleView",1503819529007
activated,view,org.eclipse.ui.console,3.5.100.v20111007_r372,"org.eclipse.ui.console.ConsoleView",1503819529908
activated,view,com.altera.sbtgui.launch,13.0.0.156,"com.altera.sbtgui.launch.hardware.ByteStreamConsoleView",1503819534182
deactivated,workbench,org.eclipse.ui.workbench,3.7.1.v20120104-1859,"",1503819546311
activated,workbench,org.eclipse.ui.workbench,3.7.1.v20120104-1859,"",1503819556732
deactivated,workbench,org.eclipse.ui.workbench,3.7.1.v20120104-1859,"",1503819557082
activated,workbench,org.eclipse.ui.workbench,3.7.1.v20120104-1859,"",1503819558462
deactivated,workbench,org.eclipse.ui.workbench,3.7.1.v20120104-1859,"",1503819558872
activated,workbench,org.eclipse.ui.workbench,3.7.1.v20120104-1859,"",1503819578634
deactivated,workbench,org.eclipse.ui.workbench,3.7.1.v20120104-1859,"",1503819579584
activated,workbench,org.eclipse.ui.workbench,3.7.1.v20120104-1859,"",1503819582548
deactivated,workbench,org.eclipse.ui.workbench,3.7.1.v20120104-1859,"",1503819582904
activated,workbench,org.eclipse.ui.workbench,3.7.1.v20120104-1859,"",1503819633049
activated,editor,org.eclipse.cdt.ui,5.3.2.201202111925,"org.eclipse.cdt.ui.editor.CEditor",1503819633079
executed,command,org.eclipse.ui,3.7.0.v20110928-1505,"org.eclipse.ui.edit.undo",1503819665727
executed,command,org.eclipse.ui,3.7.0.v20110928-1505,"org.eclipse.ui.edit.undo",1503819666537
executed,command,org.eclipse.ui,3.7.0.v20110928-1505,"org.eclipse.ui.edit.undo",1503819667127
executed,command,org.eclipse.ui,3.7.0.v20110928-1505,"org.eclipse.ui.edit.undo",1503819667437
executed,command,org.eclipse.ui,3.7.0.v20110928-1505,"org.eclipse.ui.file.save",1503819668119
activated,view,com.altera.sbtgui.launch,13.0.0.156,"com.altera.sbtgui.launch.hardware.ByteStreamConsoleView",1503821055996
activated,view,org.eclipse.ui.console,3.5.100.v20111007_r372,"org.eclipse.ui.console.ConsoleView",1503821056826
activated,view,com.altera.sbtgui.launch,13.0.0.156,"com.altera.sbtgui.launch.hardware.ByteStreamConsoleView",1503821060961
deactivated,workbench,org.eclipse.ui.workbench,3.7.1.v20120104-1859,"",1503821138072
activated,workbench,org.eclipse.ui.workbench,3.7.1.v20120104-1859,"",1503821142637
activated,editor,org.eclipse.cdt.ui,5.3.2.201202111925,"org.eclipse.cdt.ui.editor.CEditor",1503821174614
deactivated,workbench,org.eclipse.ui.workbench,3.7.1.v20120104-1859,"",1503821179314
executed,command,org.eclipse.ui,3.7.0.v20110928-1505,"org.eclipse.ui.edit.findReplace",1503821179334
activated,workbench,org.eclipse.ui.workbench,3.7.1.v20120104-1859,"",1503821185666
executed,command,org.eclipse.ui,3.7.0.v20110928-1505,"org.eclipse.ui.file.save",1503821227413
activated,view,com.altera.sbtgui.launch,13.0.0.156,"com.altera.sbtgui.launch.hardware.ByteStreamConsoleView",1503821231236
activated,view,org.eclipse.ui.console,3.5.100.v20111007_r372,"org.eclipse.ui.console.ConsoleView",1503821232066
activated,view,com.altera.sbtgui.launch,13.0.0.156,"com.altera.sbtgui.launch.hardware.ByteStreamConsoleView",1503821236204
deactivated,workbench,org.eclipse.ui.workbench,3.7.1.v20120104-1859,"",1503821246782
activated,workbench,org.eclipse.ui.workbench,3.7.1.v20120104-1859,"",1503821310275
activated,editor,org.eclipse.cdt.ui,5.3.2.201202111925,"org.eclipse.cdt.ui.editor.CEditor",1503821310295
executed,command,org.eclipse.cdt.ui,5.3.2.201202111925,"org.eclipse.cdt.ui.edit.opendecl",1503821318512
deactivated,workbench,org.eclipse.ui.workbench,3.7.1.v20120104-1859,"",1503821339612
executed,command,org.eclipse.ui,3.7.0.v20110928-1505,"org.eclipse.ui.edit.findReplace",1503821339632
activated,workbench,org.eclipse.ui.workbench,3.7.1.v20120104-1859,"",1503821345855
executed,command,org.eclipse.ui,3.7.0.v20110928-1505,"org.eclipse.ui.file.save",1503821349436
deactivated,workbench,org.eclipse.ui.workbench,3.7.1.v20120104-1859,"",1503821412503
activated,workbench,org.eclipse.ui.workbench,3.7.1.v20120104-1859,"",1503821453332
deactivated,workbench,org.eclipse.ui.workbench,3.7.1.v20120104-1859,"",1503821454192
activated,workbench,org.eclipse.ui.workbench,3.7.1.v20120104-1859,"",1503821457222
deactivated,workbench,org.eclipse.ui.workbench,3.7.1.v20120104-1859,"",1503821457702
activated,view,com.altera.sbtgui.launch,13.0.0.156,"com.altera.sbtgui.launch.hardware.ByteStreamConsoleView",1503821483136
activated,workbench,org.eclipse.ui.workbench,3.7.1.v20120104-1859,"",1503821483156
activated,editor,org.eclipse.cdt.ui,5.3.2.201202111925,"org.eclipse.cdt.ui.editor.CEditor",1503821483166
deactivated,workbench,org.eclipse.ui.workbench,3.7.1.v20120104-1859,"",1503821524100
executed,command,org.eclipse.ui,3.7.0.v20110928-1505,"org.eclipse.ui.edit.findReplace",1503821524120
activated,workbench,org.eclipse.ui.workbench,3.7.1.v20120104-1859,"",1503821526734
deactivated,workbench,org.eclipse.ui.workbench,3.7.1.v20120104-1859,"",1503821636802
executed,command,org.eclipse.ui,3.7.0.v20110928-1505,"org.eclipse.ui.edit.findReplace",1503821636822
activated,workbench,org.eclipse.ui.workbench,3.7.1.v20120104-1859,"",1503821642403
activated,view,com.altera.sbtgui.launch,13.0.0.156,"com.altera.sbtgui.launch.hardware.ByteStreamConsoleView",1503821670784
activated,editor,org.eclipse.cdt.ui,5.3.2.201202111925,"org.eclipse.cdt.ui.editor.CEditor",1503821674103
executed,command,org.eclipse.ui,3.7.0.v20110928-1505,"org.eclipse.ui.file.save",1503821678473
activated,view,com.altera.sbtgui.launch,13.0.0.156,"com.altera.sbtgui.launch.hardware.ByteStreamConsoleView",1503821684495
activated,view,org.eclipse.ui.console,3.5.100.v20111007_r372,"org.eclipse.ui.console.ConsoleView",1503821685335
activated,view,com.altera.sbtgui.launch,13.0.0.156,"com.altera.sbtgui.launch.hardware.ByteStreamConsoleView",1503821689501
deactivated,workbench,org.eclipse.ui.workbench,3.7.1.v20120104-1859,"",1503821703377
activated,workbench,org.eclipse.ui.workbench,3.7.1.v20120104-1859,"",1503821708729
deactivated,workbench,org.eclipse.ui.workbench,3.7.1.v20120104-1859,"",1503821726959
activated,workbench,org.eclipse.ui.workbench,3.7.1.v20120104-1859,"",1503821733071
deactivated,workbench,org.eclipse.ui.workbench,3.7.1.v20120104-1859,"",1503821733301
activated,workbench,org.eclipse.ui.workbench,3.7.1.v20120104-1859,"",1503821747369
activated,editor,org.eclipse.cdt.ui,5.3.2.201202111925,"org.eclipse.cdt.ui.editor.CEditor",1503821747399
executed,command,org.eclipse.ui,3.7.0.v20110928-1505,"org.eclipse.ui.file.save",1503821815771
executed,command,org.eclipse.ui,3.7.0.v20110928-1505,"org.eclipse.ui.edit.copy",1503821827554
executed,command,org.eclipse.ui,3.7.0.v20110928-1505,"org.eclipse.ui.edit.paste",1503821828184
executed,command,org.eclipse.ui.workbench.texteditor,3.7.0.v20110928-1504,"org.eclipse.ui.edit.text.smartEnter",1503821843460
executed,command,org.eclipse.ui,3.7.0.v20110928-1505,"org.eclipse.ui.edit.cut",1503821861489
executed,command,org.eclipse.ui,3.7.0.v20110928-1505,"org.eclipse.ui.edit.undo",1503821862189
executed,command,org.eclipse.ui,3.7.0.v20110928-1505,"org.eclipse.ui.edit.copy",1503821862939
executed,command,org.eclipse.ui,3.7.0.v20110928-1505,"org.eclipse.ui.edit.paste",1503821866301
executed,command,org.eclipse.ui,3.7.0.v20110928-1505,"org.eclipse.ui.file.save",1503821871471
executed,command,org.eclipse.ui,3.7.0.v20110928-1505,"org.eclipse.ui.edit.copy",1503821886786
executed,command,org.eclipse.ui,3.7.0.v20110928-1505,"org.eclipse.ui.edit.copy",1503821887625
executed,command,org.eclipse.ui,3.7.0.v20110928-1505,"org.eclipse.ui.edit.paste",1503821889625
executed,command,org.eclipse.ui,3.7.0.v20110928-1505,"org.eclipse.ui.edit.delete",1503821891661
executed,command,org.eclipse.ui,3.7.0.v20110928-1505,"org.eclipse.ui.file.save",1503821892131
activated,view,com.altera.sbtgui.launch,13.0.0.156,"com.altera.sbtgui.launch.hardware.ByteStreamConsoleView",1503821896432
activated,view,org.eclipse.ui.console,3.5.100.v20111007_r372,"org.eclipse.ui.console.ConsoleView",1503821897215
error,log,,,"Failed Executing: [nios2-download, '--cable=USB-Blaster on localhost [USB-0]', --device=1, --instance=0, --go, --accept-bad-sysid, --sidp=0x10110b0, /cygdrive/d/303_Group_37/software/Group_37_27_08/Group_37_27_08.elf] return code: 4, 'other error'",1503821901549
error,log,,,"Downloading ELF Process failed",1503821901549
deactivated,workbench,org.eclipse.ui.workbench,3.7.1.v20120104-1859,"",1503821901569
activated,workbench,org.eclipse.ui.workbench,3.7.1.v20120104-1859,"",1503821903849
activated,view,com.altera.sbtgui.launch,13.0.0.156,"com.altera.sbtgui.launch.hardware.ByteStreamConsoleView",1503821906290
activated,view,org.eclipse.ui.console,3.5.100.v20111007_r372,"org.eclipse.ui.console.ConsoleView",1503821907150
activated,view,com.altera.sbtgui.launch,13.0.0.156,"com.altera.sbtgui.launch.hardware.ByteStreamConsoleView",1503821911282
deactivated,workbench,org.eclipse.ui.workbench,3.7.1.v20120104-1859,"",1503821923906
activated,workbench,org.eclipse.ui.workbench,3.7.1.v20120104-1859,"",1503821930047
deactivated,workbench,org.eclipse.ui.workbench,3.7.1.v20120104-1859,"",1503821930257
activated,workbench,org.eclipse.ui.workbench,3.7.1.v20120104-1859,"",1503821952265
deactivated,workbench,org.eclipse.ui.workbench,3.7.1.v20120104-1859,"",1503821952525
activated,workbench,org.eclipse.ui.workbench,3.7.1.v20120104-1859,"",1503821957025
activated,editor,org.eclipse.cdt.ui,5.3.2.201202111925,"org.eclipse.cdt.ui.editor.CEditor",1503821957045
activated,view,com.altera.sbtgui.launch,13.0.0.156,"com.altera.sbtgui.launch.hardware.ByteStreamConsoleView",1503822001599
activated,editor,org.eclipse.cdt.ui,5.3.2.201202111925,"org.eclipse.cdt.ui.editor.CEditor",1503822011900
executed,command,org.eclipse.ui,3.7.0.v20110928-1505,"org.eclipse.ui.file.save",1503822013470
activated,view,com.altera.sbtgui.launch,13.0.0.156,"com.altera.sbtgui.launch.hardware.ByteStreamConsoleView",1503822017083
activated,view,org.eclipse.ui.console,3.5.100.v20111007_r372,"org.eclipse.ui.console.ConsoleView",1503822017945
activated,view,com.altera.sbtgui.launch,13.0.0.156,"com.altera.sbtgui.launch.hardware.ByteStreamConsoleView",1503822022088
deactivated,workbench,org.eclipse.ui.workbench,3.7.1.v20120104-1859,"",1503822024888
activated,workbench,org.eclipse.ui.workbench,3.7.1.v20120104-1859,"",1503822028334
deactivated,workbench,org.eclipse.ui.workbench,3.7.1.v20120104-1859,"",1503822028822
activated,workbench,org.eclipse.ui.workbench,3.7.1.v20120104-1859,"",1503822030113
deactivated,workbench,org.eclipse.ui.workbench,3.7.1.v20120104-1859,"",1503822030293
activated,workbench,org.eclipse.ui.workbench,3.7.1.v20120104-1859,"",1503822059977
activated,editor,org.eclipse.cdt.ui,5.3.2.201202111925,"org.eclipse.cdt.ui.editor.CEditor",1503822064429
executed,command,org.eclipse.ui,3.7.0.v20110928-1505,"org.eclipse.ui.file.save",1503822067392
activated,view,com.altera.sbtgui.launch,13.0.0.156,"com.altera.sbtgui.launch.hardware.ByteStreamConsoleView",1503822069563
activated,view,org.eclipse.ui.console,3.5.100.v20111007_r372,"org.eclipse.ui.console.ConsoleView",1503822071907
deactivated,workbench,org.eclipse.ui.workbench,3.7.1.v20120104-1859,"",1503822072057
activated,view,com.altera.sbtgui.launch,13.0.0.156,"com.altera.sbtgui.launch.hardware.ByteStreamConsoleView",1503822076029
activated,workbench,org.eclipse.ui.workbench,3.7.1.v20120104-1859,"",1503822089350
activated,editor,org.eclipse.cdt.ui,5.3.2.201202111925,"org.eclipse.cdt.ui.editor.CEditor",1503822090892
executed,command,org.eclipse.ui,3.7.0.v20110928-1505,"org.eclipse.ui.edit.copy",1503822135994
executed,command,org.eclipse.ui,3.7.0.v20110928-1505,"org.eclipse.ui.file.save",1503822137714
executed,command,org.eclipse.ui,3.7.0.v20110928-1505,"org.eclipse.ui.edit.paste",1503822138934
executed,command,org.eclipse.ui,3.7.0.v20110928-1505,"org.eclipse.ui.file.save",1503822148797
executed,command,org.eclipse.ui,3.7.0.v20110928-1505,"org.eclipse.ui.file.save",1503822162104
activated,view,com.altera.sbtgui.launch,13.0.0.156,"com.altera.sbtgui.launch.hardware.ByteStreamConsoleView",1503822166354
activated,view,org.eclipse.ui.console,3.5.100.v20111007_r372,"org.eclipse.ui.console.ConsoleView",1503822167184
activated,editor,org.eclipse.cdt.ui,5.3.2.201202111925,"org.eclipse.cdt.ui.editor.CEditor",1503822168576
deactivated,workbench,org.eclipse.ui.workbench,3.7.1.v20120104-1859,"",1503822208602
activated,view,com.altera.sbtgui.launch,13.0.0.156,"com.altera.sbtgui.launch.hardware.ByteStreamConsoleView",1503822215340
activated,workbench,org.eclipse.ui.workbench,3.7.1.v20120104-1859,"",1503822215360
activated,editor,org.eclipse.cdt.ui,5.3.2.201202111925,"org.eclipse.cdt.ui.editor.CEditor",1503822215380
deactivated,workbench,org.eclipse.ui.workbench,3.7.1.v20120104-1859,"",1503822232359
activated,view,com.altera.sbtgui.launch,13.0.0.156,"com.altera.sbtgui.launch.hardware.ByteStreamConsoleView",1503822238322
activated,workbench,org.eclipse.ui.workbench,3.7.1.v20120104-1859,"",1503822238342
deactivated,workbench,org.eclipse.ui.workbench,3.7.1.v20120104-1859,"",1503822278607
activated,workbench,org.eclipse.ui.workbench,3.7.1.v20120104-1859,"",1503822287280
activated,view,org.eclipse.ui.console,3.5.100.v20111007_r372,"org.eclipse.ui.console.ConsoleView",1503822297011
error,log,,,"Failed Executing: [nios2-download, '--cable=USB-Blaster on localhost [USB-0]', --device=1, --instance=0, --stop, --accept-bad-sysid, --sidp=0x10110b0] return code: 4, 'other error'",1503822297911
error,log,,,"Failed Executing: [nios2-download, '--cable=USB-Blaster on localhost [USB-0]', --device=1, --instance=0, --go, --accept-bad-sysid, --sidp=0x10110b0, /cygdrive/d/303_Group_37/software/Group_37_27_08/Group_37_27_08.elf] return code: 4, 'other error'",1503822300816
error,log,,,"Downloading ELF Process failed",1503822300816
deactivated,workbench,org.eclipse.ui.workbench,3.7.1.v20120104-1859,"",1503822300816
activated,workbench,org.eclipse.ui.workbench,3.7.1.v20120104-1859,"",1503822303838
activated,view,com.altera.sbtgui.launch,13.0.0.156,"com.altera.sbtgui.launch.hardware.ByteStreamConsoleView",1503822307511
activated,view,org.eclipse.ui.console,3.5.100.v20111007_r372,"org.eclipse.ui.console.ConsoleView",1503822309325
error,log,,,"Failed Executing: [nios2-download, '--cable=USB-Blaster on localhost [USB-0]', --device=1, --instance=0, --stop, --accept-bad-sysid, --sidp=0x10110b0] return code: 4, 'other error'",1503822310225
activated,view,com.altera.sbtgui.launch,13.0.0.156,"com.altera.sbtgui.launch.hardware.ByteStreamConsoleView",1503822313507
deactivated,workbench,org.eclipse.ui.workbench,3.7.1.v20120104-1859,"",1503822321379
activated,workbench,org.eclipse.ui.workbench,3.7.1.v20120104-1859,"",1503822322961
deactivated,workbench,org.eclipse.ui.workbench,3.7.1.v20120104-1859,"",1503822326245
activated,workbench,org.eclipse.ui.workbench,3.7.1.v20120104-1859,"",1503822327155
deactivated,workbench,org.eclipse.ui.workbench,3.7.1.v20120104-1859,"",1503822327805
activated,workbench,org.eclipse.ui.workbench,3.7.1.v20120104-1859,"",1503822331529
deactivated,workbench,org.eclipse.ui.workbench,3.7.1.v20120104-1859,"",1503822345441
activated,workbench,org.eclipse.ui.workbench,3.7.1.v20120104-1859,"",1503822346531
deactivated,workbench,org.eclipse.ui.workbench,3.7.1.v20120104-1859,"",1503822347251
activated,workbench,org.eclipse.ui.workbench,3.7.1.v20120104-1859,"",1503822357082
deactivated,workbench,org.eclipse.ui.workbench,3.7.1.v20120104-1859,"",1503822358906
activated,workbench,org.eclipse.ui.workbench,3.7.1.v20120104-1859,"",1503822807191
activated,editor,org.eclipse.cdt.ui,5.3.2.201202111925,"org.eclipse.cdt.ui.editor.CEditor",1503822807221
deactivated,workbench,org.eclipse.ui.workbench,3.7.1.v20120104-1859,"",1503822904894
activated,workbench,org.eclipse.ui.workbench,3.7.1.v20120104-1859,"",1503822905384
deactivated,workbench,org.eclipse.ui.workbench,3.7.1.v20120104-1859,"",1503822906114
activated,workbench,org.eclipse.ui.workbench,3.7.1.v20120104-1859,"",1503822978958
executed,command,org.eclipse.ui,3.7.0.v20110928-1505,"org.eclipse.ui.file.save",1503822994657
deactivated,workbench,org.eclipse.ui.workbench,3.7.1.v20120104-1859,"",1503822996887
activated,workbench,org.eclipse.ui.workbench,3.7.1.v20120104-1859,"",1503823000722
executed,command,org.eclipse.ui,3.7.0.v20110928-1505,"org.eclipse.ui.file.save",1503823004252
deactivated,workbench,org.eclipse.ui.workbench,3.7.1.v20120104-1859,"",1503823004852
activated,workbench,org.eclipse.ui.workbench,3.7.1.v20120104-1859,"",1503823005778
activated,view,com.altera.sbtgui.launch,13.0.0.156,"com.altera.sbtgui.launch.hardware.ByteStreamConsoleView",1503823010048
activated,view,org.eclipse.ui.console,3.5.100.v20111007_r372,"org.eclipse.ui.console.ConsoleView",1503823010976
activated,view,com.altera.sbtgui.launch,13.0.0.156,"com.altera.sbtgui.launch.hardware.ByteStreamConsoleView",1503823015093
activated,editor,org.eclipse.cdt.ui,5.3.2.201202111925,"org.eclipse.cdt.ui.editor.CEditor",1503823065126
deactivated,workbench,org.eclipse.ui.workbench,3.7.1.v20120104-1859,"",1503823192983
activated,workbench,org.eclipse.ui.workbench,3.7.1.v20120104-1859,"",1503823193023
deactivated,workbench,org.eclipse.ui.workbench,3.7.1.v20120104-1859,"",1503823193534
activated,workbench,org.eclipse.ui.workbench,3.7.1.v20120104-1859,"",1503823218408
deactivated,workbench,org.eclipse.ui.workbench,3.7.1.v20120104-1859,"",1503823223497
activated,workbench,org.eclipse.ui.workbench,3.7.1.v20120104-1859,"",1503823226684
deactivated,workbench,org.eclipse.ui.workbench,3.7.1.v20120104-1859,"",1503823232025
activated,workbench,org.eclipse.ui.workbench,3.7.1.v20120104-1859,"",1503823234117
deactivated,workbench,org.eclipse.ui.workbench,3.7.1.v20120104-1859,"",1503823240394
activated,workbench,org.eclipse.ui.workbench,3.7.1.v20120104-1859,"",1503823300075
deactivated,workbench,org.eclipse.ui.workbench,3.7.1.v20120104-1859,"",1503823311744
activated,workbench,org.eclipse.ui.workbench,3.7.1.v20120104-1859,"",1503823330777
deactivated,workbench,org.eclipse.ui.workbench,3.7.1.v20120104-1859,"",1503823335136
activated,workbench,org.eclipse.ui.workbench,3.7.1.v20120104-1859,"",1503823446244
deactivated,workbench,org.eclipse.ui.workbench,3.7.1.v20120104-1859,"",1503823454890
activated,workbench,org.eclipse.ui.workbench,3.7.1.v20120104-1859,"",1503823490357
deactivated,workbench,org.eclipse.ui.workbench,3.7.1.v20120104-1859,"",1503823504644
activated,workbench,org.eclipse.ui.workbench,3.7.1.v20120104-1859,"",1503823505359
deactivated,workbench,org.eclipse.ui.workbench,3.7.1.v20120104-1859,"",1503823508095
activated,workbench,org.eclipse.ui.workbench,3.7.1.v20120104-1859,"",1503823509517
deactivated,workbench,org.eclipse.ui.workbench,3.7.1.v20120104-1859,"",1503823515101
activated,workbench,org.eclipse.ui.workbench,3.7.1.v20120104-1859,"",1503823517609
executed,command,org.eclipse.ui,3.7.0.v20110928-1505,"org.eclipse.ui.file.save",1503823528052
deactivated,workbench,org.eclipse.ui.workbench,3.7.1.v20120104-1859,"",1503823538842
activated,workbench,org.eclipse.ui.workbench,3.7.1.v20120104-1859,"",1503823539321
deactivated,workbench,org.eclipse.ui.workbench,3.7.1.v20120104-1859,"",1503823540643
activated,workbench,org.eclipse.ui.workbench,3.7.1.v20120104-1859,"",1503823541572
deactivated,workbench,org.eclipse.ui.workbench,3.7.1.v20120104-1859,"",1503823597506
activated,workbench,org.eclipse.ui.workbench,3.7.1.v20120104-1859,"",1503824175577
deactivated,workbench,org.eclipse.ui.workbench,3.7.1.v20120104-1859,"",1503824387671
executed,command,org.eclipse.ui,3.7.0.v20110928-1505,"org.eclipse.ui.edit.findReplace",1503824387691
activated,workbench,org.eclipse.ui.workbench,3.7.1.v20120104-1859,"",1503824394344
deactivated,workbench,org.eclipse.ui.workbench,3.7.1.v20120104-1859,"",1503824493196
activated,workbench,org.eclipse.ui.workbench,3.7.1.v20120104-1859,"",1503825763531
deactivated,workbench,org.eclipse.ui.workbench,3.7.1.v20120104-1859,"",1503825797635
activated,workbench,org.eclipse.ui.workbench,3.7.1.v20120104-1859,"",1503825798260
executed,command,org.eclipse.ui,3.7.0.v20110928-1505,"org.eclipse.ui.file.save",1503825807320
deactivated,workbench,org.eclipse.ui.workbench,3.7.1.v20120104-1859,"",1503825824166
executed,command,org.eclipse.ui,3.7.0.v20110928-1505,"org.eclipse.ui.edit.findReplace",1503825824186
activated,workbench,org.eclipse.ui.workbench,3.7.1.v20120104-1859,"",1503825832594
executed,command,org.eclipse.cdt.ui,5.3.2.201202111925,"org.eclipse.cdt.ui.edit.text.c.toggle.comment",1503825914734
executed,command,org.eclipse.cdt.ui,5.3.2.201202111925,"org.eclipse.cdt.ui.edit.text.c.toggle.comment",1503825922844
executed,command,org.eclipse.cdt.ui,5.3.2.201202111925,"org.eclipse.cdt.ui.edit.text.c.toggle.comment",1503825933212
executed,command,org.eclipse.ui,3.7.0.v20110928-1505,"org.eclipse.ui.file.save",1503825933802
executed,command,org.eclipse.cdt.ui,5.3.2.201202111925,"org.eclipse.cdt.ui.edit.text.c.toggle.comment",1503825939582
executed,command,org.eclipse.ui,3.7.0.v20110928-1505,"org.eclipse.ui.file.save",1503825939940
deactivated,workbench,org.eclipse.ui.workbench,3.7.1.v20120104-1859,"",1503825944533
activated,workbench,org.eclipse.ui.workbench,3.7.1.v20120104-1859,"",1503825946543
executed,command,org.eclipse.ui,3.7.0.v20110928-1505,"org.eclipse.ui.edit.copy",1503825958795
executed,command,org.eclipse.ui,3.7.0.v20110928-1505,"org.eclipse.ui.edit.copy",1503825965448
executed,command,org.eclipse.ui,3.7.0.v20110928-1505,"org.eclipse.ui.edit.paste",1503825978590
executed,command,org.eclipse.ui,3.7.0.v20110928-1505,"org.eclipse.ui.edit.undo",1503825980090
executed,command,org.eclipse.ui,3.7.0.v20110928-1505,"org.eclipse.ui.edit.paste",1503825981710
executed,command,org.eclipse.ui.workbench.texteditor,3.7.0.v20110928-1504,"org.eclipse.ui.edit.text.shiftLeft",1503825983780
