what,kind,bundleId,bundleVersion,description,time
executed,command,org.eclipse.ui,3.7.0.v20110928-1505,"org.eclipse.ui.edit.undo",1503799575538
executed,command,org.eclipse.ui,3.7.0.v20110928-1505,"org.eclipse.ui.edit.undo",1503799575668
executed,command,org.eclipse.ui,3.7.0.v20110928-1505,"org.eclipse.ui.edit.undo",1503799575848
executed,command,org.eclipse.ui,3.7.0.v20110928-1505,"org.eclipse.ui.edit.undo",1503799576028
executed,command,org.eclipse.ui,3.7.0.v20110928-1505,"org.eclipse.ui.edit.undo",1503799576218
executed,command,org.eclipse.ui,3.7.0.v20110928-1505,"org.eclipse.ui.edit.undo",1503799576438
executed,command,org.eclipse.ui,3.7.0.v20110928-1505,"org.eclipse.ui.edit.undo",1503799576548
executed,command,org.eclipse.ui,3.7.0.v20110928-1505,"org.eclipse.ui.edit.undo",1503799577178
executed,command,org.eclipse.ui,3.7.0.v20110928-1505,"org.eclipse.ui.edit.undo",1503799577668
executed,command,org.eclipse.ui,3.7.0.v20110928-1505,"org.eclipse.ui.edit.undo",1503799578008
executed,command,org.eclipse.ui,3.7.0.v20110928-1505,"org.eclipse.ui.edit.undo",1503799578338
executed,command,org.eclipse.ui,3.7.0.v20110928-1505,"org.eclipse.ui.edit.undo",1503799578658
executed,command,org.eclipse.ui,3.7.0.v20110928-1505,"org.eclipse.ui.edit.undo",1503799578848
executed,command,org.eclipse.ui,3.7.0.v20110928-1505,"org.eclipse.ui.edit.undo",1503799579168
executed,command,org.eclipse.ui,3.7.0.v20110928-1505,"org.eclipse.ui.edit.undo",1503799579458
executed,command,org.eclipse.ui,3.7.0.v20110928-1505,"org.eclipse.ui.edit.undo",1503799579769
executed,command,org.eclipse.ui,3.7.0.v20110928-1505,"org.eclipse.ui.edit.undo",1503799580059
executed,command,org.eclipse.ui,3.7.0.v20110928-1505,"org.eclipse.ui.edit.undo",1503799580379
executed,command,org.eclipse.ui,3.7.0.v20110928-1505,"org.eclipse.ui.edit.undo",1503799580709
executed,command,org.eclipse.ui,3.7.0.v20110928-1505,"org.eclipse.ui.edit.undo",1503799580989
executed,command,org.eclipse.ui,3.7.0.v20110928-1505,"org.eclipse.ui.edit.undo",1503799581269
executed,command,org.eclipse.ui,3.7.0.v20110928-1505,"org.eclipse.ui.edit.undo",1503799581569
executed,command,org.eclipse.ui,3.7.0.v20110928-1505,"org.eclipse.ui.file.save",1503799585331
executed,command,org.eclipse.ui,3.7.0.v20110928-1505,"org.eclipse.ui.file.save",1503799627623
executed,command,org.eclipse.ui,3.7.0.v20110928-1505,"org.eclipse.ui.edit.copy",1503799657346
executed,command,org.eclipse.ui,3.7.0.v20110928-1505,"org.eclipse.ui.edit.paste",1503799659116
executed,command,org.eclipse.ui,3.7.0.v20110928-1505,"org.eclipse.ui.edit.undo",1503799725057
executed,command,org.eclipse.ui,3.7.0.v20110928-1505,"org.eclipse.ui.edit.undo",1503799725397
executed,command,org.eclipse.ui,3.7.0.v20110928-1505,"org.eclipse.ui.edit.undo",1503799734087
executed,command,org.eclipse.ui,3.7.0.v20110928-1505,"org.eclipse.ui.edit.undo",1503799734457
executed,command,org.eclipse.ui,3.7.0.v20110928-1505,"org.eclipse.ui.edit.undo",1503799742748
executed,command,org.eclipse.ui,3.7.0.v20110928-1505,"org.eclipse.ui.edit.undo",1503799743128
executed,command,org.eclipse.ui,3.7.0.v20110928-1505,"org.eclipse.ui.edit.undo",1503799760094
executed,command,org.eclipse.ui,3.7.0.v20110928-1505,"org.eclipse.ui.edit.undo",1503799765684
executed,command,org.eclipse.ui,3.7.0.v20110928-1505,"org.eclipse.ui.edit.undo",1503799766344
executed,command,org.eclipse.ui,3.7.0.v20110928-1505,"org.eclipse.ui.file.save",1503799776996
executed,command,org.eclipse.ui,3.7.0.v20110928-1505,"org.eclipse.ui.file.save",1503799795840
executed,command,org.eclipse.ui,3.7.0.v20110928-1505,"org.eclipse.ui.edit.copy",1503799830952
executed,command,org.eclipse.ui,3.7.0.v20110928-1505,"org.eclipse.ui.edit.copy",1503799833464
executed,command,org.eclipse.ui,3.7.0.v20110928-1505,"org.eclipse.ui.edit.paste",1503799835504
executed,command,org.eclipse.ui,3.7.0.v20110928-1505,"org.eclipse.ui.edit.paste",1503799836834
executed,command,org.eclipse.ui,3.7.0.v20110928-1505,"org.eclipse.ui.edit.paste",1503799839524
executed,command,org.eclipse.ui,3.7.0.v20110928-1505,"org.eclipse.ui.edit.paste",1503799843835
executed,command,org.eclipse.ui,3.7.0.v20110928-1505,"org.eclipse.ui.edit.paste",1503799845325
executed,command,org.eclipse.ui,3.7.0.v20110928-1505,"org.eclipse.ui.file.save",1503799846075
activated,view,com.altera.sbtgui.launch,13.0.0.156,"com.altera.sbtgui.launch.hardware.ByteStreamConsoleView",1503799863214
activated,view,org.eclipse.ui.console,3.5.100.v20111007_r372,"org.eclipse.ui.console.ConsoleView",1503799864024
activated,view,com.altera.sbtgui.launch,13.0.0.156,"com.altera.sbtgui.launch.hardware.ByteStreamConsoleView",1503799868156
deactivated,workbench,org.eclipse.ui.workbench,3.7.1.v20120104-1859,"",1503799872046
activated,workbench,org.eclipse.ui.workbench,3.7.1.v20120104-1859,"",1503799907889
activated,editor,org.eclipse.cdt.ui,5.3.2.201202111925,"org.eclipse.cdt.ui.editor.CEditor",1503799908600
deactivated,workbench,org.eclipse.ui.workbench,3.7.1.v20120104-1859,"",1503800009360
activated,workbench,org.eclipse.ui.workbench,3.7.1.v20120104-1859,"",1503800015280
executed,command,org.eclipse.ui,3.7.0.v20110928-1505,"org.eclipse.ui.edit.undo",1503800017400
executed,command,org.eclipse.ui,3.7.0.v20110928-1505,"org.eclipse.ui.edit.redo",1503800018960
executed,command,org.eclipse.ui,3.7.0.v20110928-1505,"org.eclipse.ui.file.save",1503800039812
activated,view,com.altera.sbtgui.launch,13.0.0.156,"com.altera.sbtgui.launch.hardware.ByteStreamConsoleView",1503800043402
activated,view,org.eclipse.ui.console,3.5.100.v20111007_r372,"org.eclipse.ui.console.ConsoleView",1503800044212
activated,view,com.altera.sbtgui.launch,13.0.0.156,"com.altera.sbtgui.launch.hardware.ByteStreamConsoleView",1503800048364
deactivated,workbench,org.eclipse.ui.workbench,3.7.1.v20120104-1859,"",1503800050164
activated,workbench,org.eclipse.ui.workbench,3.7.1.v20120104-1859,"",1503800054033
activated,editor,org.eclipse.cdt.ui,5.3.2.201202111925,"org.eclipse.cdt.ui.editor.CEditor",1503800054053
deactivated,workbench,org.eclipse.ui.workbench,3.7.1.v20120104-1859,"",1503800275649
executed,command,org.eclipse.ui,3.7.0.v20110928-1505,"org.eclipse.ui.edit.findReplace",1503800275669
activated,workbench,org.eclipse.ui.workbench,3.7.1.v20120104-1859,"",1503800292343
deactivated,workbench,org.eclipse.ui.workbench,3.7.1.v20120104-1859,"",1503800334992
executed,command,org.eclipse.ui,3.7.0.v20110928-1505,"org.eclipse.ui.edit.findReplace",1503800335022
activated,workbench,org.eclipse.ui.workbench,3.7.1.v20120104-1859,"",1503800395924
executed,command,org.eclipse.ui,3.7.0.v20110928-1505,"org.eclipse.ui.file.save",1503800404706
executed,command,org.eclipse.ui,3.7.0.v20110928-1505,"org.eclipse.ui.edit.undo",1503800420971
deactivated,workbench,org.eclipse.ui.workbench,3.7.1.v20120104-1859,"",1503800422651
executed,command,org.eclipse.ui,3.7.0.v20110928-1505,"org.eclipse.ui.edit.findReplace",1503800422671
activated,workbench,org.eclipse.ui.workbench,3.7.1.v20120104-1859,"",1503800428653
deactivated,workbench,org.eclipse.ui.workbench,3.7.1.v20120104-1859,"",1503800429443
executed,command,org.eclipse.ui,3.7.0.v20110928-1505,"org.eclipse.ui.edit.findReplace",1503800429463
activated,workbench,org.eclipse.ui.workbench,3.7.1.v20120104-1859,"",1503800433823
deactivated,workbench,org.eclipse.ui.workbench,3.7.1.v20120104-1859,"",1503800440894
executed,command,org.eclipse.ui,3.7.0.v20110928-1505,"org.eclipse.ui.edit.findReplace",1503800440914
activated,workbench,org.eclipse.ui.workbench,3.7.1.v20120104-1859,"",1503800504064
deactivated,workbench,org.eclipse.ui.workbench,3.7.1.v20120104-1859,"",1503800627532
activated,workbench,org.eclipse.ui.workbench,3.7.1.v20120104-1859,"",1503800713976
deactivated,workbench,org.eclipse.ui.workbench,3.7.1.v20120104-1859,"",1503800841749
executed,command,org.eclipse.ui,3.7.0.v20110928-1505,"org.eclipse.ui.edit.findReplace",1503800841779
activated,workbench,org.eclipse.ui.workbench,3.7.1.v20120104-1859,"",1503800843219
deactivated,workbench,org.eclipse.ui.workbench,3.7.1.v20120104-1859,"",1503800866180
executed,command,org.eclipse.ui,3.7.0.v20110928-1505,"org.eclipse.ui.edit.findReplace",1503800866210
activated,workbench,org.eclipse.ui.workbench,3.7.1.v20120104-1859,"",1503800872916
deactivated,workbench,org.eclipse.ui.workbench,3.7.1.v20120104-1859,"",1503800879394
executed,command,org.eclipse.ui,3.7.0.v20110928-1505,"org.eclipse.ui.edit.findReplace",1503800879414
activated,workbench,org.eclipse.ui.workbench,3.7.1.v20120104-1859,"",1503800881086
deactivated,workbench,org.eclipse.ui.workbench,3.7.1.v20120104-1859,"",1503800882477
executed,command,org.eclipse.ui,3.7.0.v20110928-1505,"org.eclipse.ui.edit.findReplace",1503800882487
activated,workbench,org.eclipse.ui.workbench,3.7.1.v20120104-1859,"",1503800884881
executed,command,org.eclipse.ui,3.7.0.v20110928-1505,"org.eclipse.ui.edit.copy",1503800887236
deactivated,workbench,org.eclipse.ui.workbench,3.7.1.v20120104-1859,"",1503800887796
executed,command,org.eclipse.ui,3.7.0.v20110928-1505,"org.eclipse.ui.edit.findReplace",1503800887816
activated,workbench,org.eclipse.ui.workbench,3.7.1.v20120104-1859,"",1503800891076
executed,command,org.eclipse.ui,3.7.0.v20110928-1505,"org.eclipse.ui.edit.paste",1503800893326
executed,command,org.eclipse.ui,3.7.0.v20110928-1505,"org.eclipse.ui.file.save",1503800893946
executed,command,org.eclipse.ui,3.7.0.v20110928-1505,"org.eclipse.ui.file.save",1503800906405
deactivated,workbench,org.eclipse.ui.workbench,3.7.1.v20120104-1859,"",1503800911297
activated,workbench,org.eclipse.ui.workbench,3.7.1.v20120104-1859,"",1503800914034
executed,command,org.eclipse.ui,3.7.0.v20110928-1505,"org.eclipse.ui.file.save",1503800931726
executed,command,org.eclipse.ui,3.7.0.v20110928-1505,"org.eclipse.ui.file.save",1503800940126
deactivated,workbench,org.eclipse.ui.workbench,3.7.1.v20120104-1859,"",1503800943786
activated,view,com.altera.sbtgui.launch,13.0.0.156,"com.altera.sbtgui.launch.hardware.ByteStreamConsoleView",1503800943836
activated,workbench,org.eclipse.ui.workbench,3.7.1.v20120104-1859,"",1503800944663
activated,view,org.eclipse.ui.console,3.5.100.v20111007_r372,"org.eclipse.ui.console.ConsoleView",1503800944663
error,log,,,"Failed Executing: [nios2-download, '--cable=USB-Blaster on localhost [USB-0]', --device=1, --instance=0, --go, --accept-bad-sysid, --sidp=0x10110b0, /cygdrive/d/303_Group_37/software/Group_37_27_08/Group_37_27_08.elf] return code: 134",1503800950108
error,log,,,"Downloading ELF Process failed",1503800950108
deactivated,workbench,org.eclipse.ui.workbench,3.7.1.v20120104-1859,"",1503800950138
activated,workbench,org.eclipse.ui.workbench,3.7.1.v20120104-1859,"",1503800951852
activated,view,com.altera.sbtgui.launch,13.0.0.156,"com.altera.sbtgui.launch.hardware.ByteStreamConsoleView",1503800955662
activated,view,org.eclipse.ui.console,3.5.100.v20111007_r372,"org.eclipse.ui.console.ConsoleView",1503800957474
error,log,,,"Failed Executing: [nios2-download, '--cable=USB-Blaster on localhost [USB-0]', --device=1, --instance=0, --stop, --accept-bad-sysid, --sidp=0x10110b0] return code: 4, 'other error'",1503800958384
activated,view,com.altera.sbtgui.launch,13.0.0.156,"com.altera.sbtgui.launch.hardware.ByteStreamConsoleView",1503800961546
activated,editor,org.eclipse.cdt.ui,5.3.2.201202111925,"org.eclipse.cdt.ui.editor.CEditor",1503800975740
deactivated,workbench,org.eclipse.ui.workbench,3.7.1.v20120104-1859,"",1503800982503
executed,command,org.eclipse.ui,3.7.0.v20110928-1505,"org.eclipse.ui.edit.findReplace",1503800982523
activated,workbench,org.eclipse.ui.workbench,3.7.1.v20120104-1859,"",1503800983843
executed,command,org.eclipse.ui,3.7.0.v20110928-1505,"org.eclipse.ui.edit.copy",1503800988946
executed,command,org.eclipse.ui,3.7.0.v20110928-1505,"org.eclipse.ui.edit.undo",1503800990886
executed,command,org.eclipse.ui,3.7.0.v20110928-1505,"org.eclipse.ui.edit.paste",1503800992216
executed,command,org.eclipse.ui,3.7.0.v20110928-1505,"org.eclipse.ui.edit.paste",1503801007572
executed,command,org.eclipse.ui,3.7.0.v20110928-1505,"org.eclipse.ui.edit.paste",1503801010082
executed,command,org.eclipse.ui,3.7.0.v20110928-1505,"org.eclipse.ui.edit.undo",1503801015137
executed,command,org.eclipse.ui,3.7.0.v20110928-1505,"org.eclipse.ui.edit.delete",1503801023771
executed,command,org.eclipse.ui,3.7.0.v20110928-1505,"org.eclipse.ui.file.save",1503801024301
activated,view,com.altera.sbtgui.launch,13.0.0.156,"com.altera.sbtgui.launch.hardware.ByteStreamConsoleView",1503801027941
activated,view,org.eclipse.ui.console,3.5.100.v20111007_r372,"org.eclipse.ui.console.ConsoleView",1503801028771
activated,view,com.altera.sbtgui.launch,13.0.0.156,"com.altera.sbtgui.launch.hardware.ByteStreamConsoleView",1503801032883
opened,view,org.eclipse.ui.views,3.6.0.v20110928-1505,"org.eclipse.ui.views.PropertySheet",1503801058140
activated,view,org.eclipse.ui.views,3.6.0.v20110928-1505,"org.eclipse.ui.views.PropertySheet",1503801058170
activated,view,com.altera.sbtgui.launch,13.0.0.156,"com.altera.sbtgui.launch.hardware.ByteStreamConsoleView",1503801059020
activated,editor,org.eclipse.cdt.ui,5.3.2.201202111925,"org.eclipse.cdt.ui.editor.CEditor",1503801074743
activated,view,com.altera.sbtgui.launch,13.0.0.156,"com.altera.sbtgui.launch.hardware.ByteStreamConsoleView",1503801081292
activated,editor,org.eclipse.cdt.ui,5.3.2.201202111925,"org.eclipse.cdt.ui.editor.CEditor",1503801108877
started,bundle,org.eclipse.compare,3.5.202.R37x_v20111109-0800,"org.eclipse.compare",1503801110506
executed,command,org.eclipse.cdt.ui,5.3.2.201202111925,"org.eclipse.cdt.ui.edit.opendecl",1503801112306
executed,command,org.eclipse.ui,3.7.0.v20110928-1505,"org.eclipse.ui.edit.undo",1503801123565
executed,command,org.eclipse.ui.workbench.texteditor,3.7.0.v20110928-1504,"org.eclipse.ui.edit.text.deletePreviousWord",1503801124115
executed,command,org.eclipse.ui,3.7.0.v20110928-1505,"org.eclipse.ui.edit.undo",1503801124495
executed,command,org.eclipse.ui,3.7.0.v20110928-1505,"org.eclipse.ui.edit.undo",1503801124705
executed,command,org.eclipse.ui,3.7.0.v20110928-1505,"org.eclipse.ui.edit.undo",1503801125065
executed,command,org.eclipse.ui,3.7.0.v20110928-1505,"org.eclipse.ui.edit.undo",1503801126105
executed,command,org.eclipse.ui,3.7.0.v20110928-1505,"org.eclipse.ui.edit.redo",1503801127985
executed,command,org.eclipse.ui,3.7.0.v20110928-1505,"org.eclipse.ui.edit.redo",1503801129955
executed,command,org.eclipse.ui,3.7.0.v20110928-1505,"org.eclipse.ui.file.save",1503801137657
executed,command,org.eclipse.ui,3.7.0.v20110928-1505,"org.eclipse.ui.file.save",1503801161201
executed,command,org.eclipse.ui,3.7.0.v20110928-1505,"org.eclipse.ui.file.save",1503801175177
activated,view,com.altera.sbtgui.launch,13.0.0.156,"com.altera.sbtgui.launch.hardware.ByteStreamConsoleView",1503801178939
activated,view,org.eclipse.ui.console,3.5.100.v20111007_r372,"org.eclipse.ui.console.ConsoleView",1503801179769
activated,view,com.altera.sbtgui.launch,13.0.0.156,"com.altera.sbtgui.launch.hardware.ByteStreamConsoleView",1503801183793
deactivated,workbench,org.eclipse.ui.workbench,3.7.1.v20120104-1859,"",1503801195574
activated,workbench,org.eclipse.ui.workbench,3.7.1.v20120104-1859,"",1503801198394
deactivated,workbench,org.eclipse.ui.workbench,3.7.1.v20120104-1859,"",1503801199604
activated,workbench,org.eclipse.ui.workbench,3.7.1.v20120104-1859,"",1503801200124
activated,editor,org.eclipse.cdt.ui,5.3.2.201202111925,"org.eclipse.cdt.ui.editor.CEditor",1503801200144
executed,command,org.eclipse.ui,3.7.0.v20110928-1505,"org.eclipse.ui.file.save",1503801360862
executed,command,org.eclipse.cdt.ui,5.3.2.201202111925,"org.eclipse.cdt.ui.edit.opendecl",1503801393431
deactivated,workbench,org.eclipse.ui.workbench,3.7.1.v20120104-1859,"",1503801399662
executed,command,org.eclipse.ui,3.7.0.v20110928-1505,"org.eclipse.ui.edit.findReplace",1503801399682
activated,workbench,org.eclipse.ui.workbench,3.7.1.v20120104-1859,"",1503801404384
deactivated,workbench,org.eclipse.ui.workbench,3.7.1.v20120104-1859,"",1503801405514
executed,command,org.eclipse.ui,3.7.0.v20110928-1505,"org.eclipse.ui.edit.findReplace",1503801405534
activated,workbench,org.eclipse.ui.workbench,3.7.1.v20120104-1859,"",1503801407304
executed,command,org.eclipse.ui,3.7.0.v20110928-1505,"org.eclipse.ui.edit.undo",1503801432030
executed,command,org.eclipse.ui,3.7.0.v20110928-1505,"org.eclipse.ui.file.save",1503801436250
deactivated,workbench,org.eclipse.ui.workbench,3.7.1.v20120104-1859,"",1503801450924
activated,workbench,org.eclipse.ui.workbench,3.7.1.v20120104-1859,"",1503801479348
deactivated,workbench,org.eclipse.ui.workbench,3.7.1.v20120104-1859,"",1503801484708
executed,command,org.eclipse.ui,3.7.0.v20110928-1505,"org.eclipse.ui.edit.findReplace",1503801484745
activated,workbench,org.eclipse.ui.workbench,3.7.1.v20120104-1859,"",1503801488664
executed,command,org.eclipse.ui,3.7.0.v20110928-1505,"org.eclipse.ui.edit.copy",1503801531241
deactivated,workbench,org.eclipse.ui.workbench,3.7.1.v20120104-1859,"",1503801533972
executed,command,org.eclipse.ui,3.7.0.v20110928-1505,"org.eclipse.ui.edit.findReplace",1503801534002
activated,workbench,org.eclipse.ui.workbench,3.7.1.v20120104-1859,"",1503801563732
executed,command,org.eclipse.ui,3.7.0.v20110928-1505,"org.eclipse.ui.file.save",1503801613902
executed,command,org.eclipse.ui,3.7.0.v20110928-1505,"org.eclipse.ui.edit.copy",1503801617335
executed,command,org.eclipse.ui,3.7.0.v20110928-1505,"org.eclipse.ui.edit.copy",1503801618135
deactivated,workbench,org.eclipse.ui.workbench,3.7.1.v20120104-1859,"",1503801632065
executed,command,org.eclipse.ui,3.7.0.v20110928-1505,"org.eclipse.ui.edit.findReplace",1503801632095
activated,workbench,org.eclipse.ui.workbench,3.7.1.v20120104-1859,"",1503801633045
executed,command,org.eclipse.ui,3.7.0.v20110928-1505,"org.eclipse.ui.edit.paste",1503801636387
executed,command,org.eclipse.ui,3.7.0.v20110928-1505,"org.eclipse.ui.file.save",1503801638147
executed,command,org.eclipse.ui,3.7.0.v20110928-1505,"org.eclipse.ui.edit.undo",1503801661434
executed,command,org.eclipse.ui,3.7.0.v20110928-1505,"org.eclipse.ui.edit.undo",1503801662044
executed,command,org.eclipse.ui,3.7.0.v20110928-1505,"org.eclipse.ui.file.save",1503801662591
deactivated,workbench,org.eclipse.ui.workbench,3.7.1.v20120104-1859,"",1503801715376
executed,command,org.eclipse.ui,3.7.0.v20110928-1505,"org.eclipse.ui.edit.findReplace",1503801715396
activated,workbench,org.eclipse.ui.workbench,3.7.1.v20120104-1859,"",1503801720094
deactivated,workbench,org.eclipse.ui.workbench,3.7.1.v20120104-1859,"",1503801722214
activated,workbench,org.eclipse.ui.workbench,3.7.1.v20120104-1859,"",1503801722314
executed,command,org.eclipse.cdt.ui,5.3.2.201202111925,"org.eclipse.cdt.ui.edit.opendecl",1503801821956
executed,command,org.eclipse.ui,3.7.0.v20110928-1505,"org.eclipse.ui.edit.copy",1503801839014
executed,command,org.eclipse.ui,3.7.0.v20110928-1505,"org.eclipse.ui.edit.paste",1503801839934
executed,command,org.eclipse.ui,3.7.0.v20110928-1505,"org.eclipse.ui.edit.paste",1503801840844
executed,command,org.eclipse.ui,3.7.0.v20110928-1505,"org.eclipse.ui.edit.paste",1503801842034
executed,command,org.eclipse.ui,3.7.0.v20110928-1505,"org.eclipse.ui.edit.paste",1503801844014
executed,command,org.eclipse.ui,3.7.0.v20110928-1505,"org.eclipse.ui.edit.paste",1503801845296
executed,command,org.eclipse.ui,3.7.0.v20110928-1505,"org.eclipse.ui.edit.paste",1503801847046
executed,command,org.eclipse.ui,3.7.0.v20110928-1505,"org.eclipse.ui.file.save",1503801847976
activated,view,com.altera.sbtgui.launch,13.0.0.156,"com.altera.sbtgui.launch.hardware.ByteStreamConsoleView",1503801851838
activated,view,org.eclipse.ui.console,3.5.100.v20111007_r372,"org.eclipse.ui.console.ConsoleView",1503801852638
activated,view,com.altera.sbtgui.launch,13.0.0.156,"com.altera.sbtgui.launch.hardware.ByteStreamConsoleView",1503801856840
activated,editor,org.eclipse.cdt.ui,5.3.2.201202111925,"org.eclipse.cdt.ui.editor.CEditor",1503801877533
deactivated,workbench,org.eclipse.ui.workbench,3.7.1.v20120104-1859,"",1503801879409
executed,command,org.eclipse.ui,3.7.0.v20110928-1505,"org.eclipse.ui.edit.findReplace",1503801879419
activated,workbench,org.eclipse.ui.workbench,3.7.1.v20120104-1859,"",1503801880949
deactivated,workbench,org.eclipse.ui.workbench,3.7.1.v20120104-1859,"",1503801887901
executed,command,org.eclipse.ui,3.7.0.v20110928-1505,"org.eclipse.ui.edit.findReplace",1503801887901
activated,workbench,org.eclipse.ui.workbench,3.7.1.v20120104-1859,"",1503801889590
deactivated,workbench,org.eclipse.ui.workbench,3.7.1.v20120104-1859,"",1503801896350
executed,command,org.eclipse.ui,3.7.0.v20110928-1505,"org.eclipse.ui.edit.findReplace",1503801896360
activated,workbench,org.eclipse.ui.workbench,3.7.1.v20120104-1859,"",1503801897840
executed,command,org.eclipse.ui,3.7.0.v20110928-1505,"org.eclipse.ui.file.save",1503801919711
executed,command,org.eclipse.ui,3.7.0.v20110928-1505,"org.eclipse.ui.file.save",1503801925020
error,log,,,"Unable to validate connection settings.",1503801933501
error,log,,,"Unable to validate connection settings.",1503801933501
deactivated,workbench,org.eclipse.ui.workbench,3.7.1.v20120104-1859,"",1503801933501
activated,workbench,org.eclipse.ui.workbench,3.7.1.v20120104-1859,"",1503801940291
error,log,,,"Unable to validate connection settings.",1503801948094
error,log,,,"Unable to validate connection settings.",1503801948094
deactivated,workbench,org.eclipse.ui.workbench,3.7.1.v20120104-1859,"",1503801948094
activated,workbench,org.eclipse.ui.workbench,3.7.1.v20120104-1859,"",1503801949704
activated,view,com.altera.sbtgui.launch,13.0.0.156,"com.altera.sbtgui.launch.hardware.ByteStreamConsoleView",1503801950487
activated,view,org.eclipse.ui.console,3.5.100.v20111007_r372,"org.eclipse.ui.console.ConsoleView",1503801958808
activated,view,com.altera.sbtgui.launch,13.0.0.156,"com.altera.sbtgui.launch.hardware.ByteStreamConsoleView",1503801962920
activated,editor,org.eclipse.cdt.ui,5.3.2.201202111925,"org.eclipse.cdt.ui.editor.CEditor",1503801994785
deactivated,workbench,org.eclipse.ui.workbench,3.7.1.v20120104-1859,"",1503802005855
executed,command,org.eclipse.ui,3.7.0.v20110928-1505,"org.eclipse.ui.edit.findReplace",1503802005875
activated,workbench,org.eclipse.ui.workbench,3.7.1.v20120104-1859,"",1503802009316
deactivated,workbench,org.eclipse.ui.workbench,3.7.1.v20120104-1859,"",1503802011791
executed,command,org.eclipse.ui,3.7.0.v20110928-1505,"org.eclipse.ui.edit.findReplace",1503802011811
activated,workbench,org.eclipse.ui.workbench,3.7.1.v20120104-1859,"",1503802013898
deactivated,workbench,org.eclipse.ui.workbench,3.7.1.v20120104-1859,"",1503802015188
executed,command,org.eclipse.ui,3.7.0.v20110928-1505,"org.eclipse.ui.edit.findReplace",1503802015208
activated,workbench,org.eclipse.ui.workbench,3.7.1.v20120104-1859,"",1503802016838
deactivated,workbench,org.eclipse.ui.workbench,3.7.1.v20120104-1859,"",1503802020971
executed,command,org.eclipse.ui,3.7.0.v20110928-1505,"org.eclipse.ui.edit.findReplace",1503802020991
activated,workbench,org.eclipse.ui.workbench,3.7.1.v20120104-1859,"",1503802022833
deactivated,workbench,org.eclipse.ui.workbench,3.7.1.v20120104-1859,"",1503802023684
executed,command,org.eclipse.ui,3.7.0.v20110928-1505,"org.eclipse.ui.edit.findReplace",1503802023734
activated,workbench,org.eclipse.ui.workbench,3.7.1.v20120104-1859,"",1503802025534
executed,command,org.eclipse.ui,3.7.0.v20110928-1505,"org.eclipse.ui.file.save",1503802036365
executed,command,org.eclipse.ui,3.7.0.v20110928-1505,"org.eclipse.ui.file.save",1503802041455
deactivated,workbench,org.eclipse.ui.workbench,3.7.1.v20120104-1859,"",1503802043781
executed,command,org.eclipse.ui,3.7.0.v20110928-1505,"org.eclipse.ui.edit.findReplace",1503802043801
activated,workbench,org.eclipse.ui.workbench,3.7.1.v20120104-1859,"",1503802047476
executed,command,org.eclipse.ui,3.7.0.v20110928-1505,"org.eclipse.ui.edit.paste",1503802050157
executed,command,org.eclipse.ui,3.7.0.v20110928-1505,"org.eclipse.ui.file.save",1503802050627
deactivated,workbench,org.eclipse.ui.workbench,3.7.1.v20120104-1859,"",1503802053049
executed,command,org.eclipse.ui,3.7.0.v20110928-1505,"org.eclipse.ui.edit.findReplace",1503802053089
activated,workbench,org.eclipse.ui.workbench,3.7.1.v20120104-1859,"",1503802058028
executed,command,org.eclipse.ui,3.7.0.v20110928-1505,"org.eclipse.ui.edit.copy",1503802059098
executed,command,org.eclipse.ui,3.7.0.v20110928-1505,"org.eclipse.ui.edit.copy",1503802059308
executed,command,org.eclipse.ui,3.7.0.v20110928-1505,"org.eclipse.ui.edit.copy",1503802059468
deactivated,workbench,org.eclipse.ui.workbench,3.7.1.v20120104-1859,"",1503802059848
executed,command,org.eclipse.ui,3.7.0.v20110928-1505,"org.eclipse.ui.edit.findReplace",1503802059888
activated,workbench,org.eclipse.ui.workbench,3.7.1.v20120104-1859,"",1503802061529
executed,command,org.eclipse.ui,3.7.0.v20110928-1505,"org.eclipse.ui.edit.paste",1503802062909
executed,command,org.eclipse.ui,3.7.0.v20110928-1505,"org.eclipse.ui.file.save",1503802064669
deactivated,workbench,org.eclipse.ui.workbench,3.7.1.v20120104-1859,"",1503802072389
executed,command,org.eclipse.ui,3.7.0.v20110928-1505,"org.eclipse.ui.edit.findReplace",1503802072409
activated,workbench,org.eclipse.ui.workbench,3.7.1.v20120104-1859,"",1503802081843
deactivated,workbench,org.eclipse.ui.workbench,3.7.1.v20120104-1859,"",1503802092329
executed,command,org.eclipse.ui,3.7.0.v20110928-1505,"org.eclipse.ui.edit.findReplace",1503802092349
activated,workbench,org.eclipse.ui.workbench,3.7.1.v20120104-1859,"",1503802097309
executed,command,org.eclipse.ui,3.7.0.v20110928-1505,"org.eclipse.ui.edit.paste",1503802105059
executed,command,org.eclipse.ui,3.7.0.v20110928-1505,"org.eclipse.ui.edit.paste",1503802107534
executed,command,org.eclipse.ui,3.7.0.v20110928-1505,"org.eclipse.ui.edit.paste",1503802118376
executed,command,org.eclipse.ui,3.7.0.v20110928-1505,"org.eclipse.ui.edit.undo",1503802136881
executed,command,org.eclipse.ui,3.7.0.v20110928-1505,"org.eclipse.ui.edit.undo",1503802137091
executed,command,org.eclipse.ui,3.7.0.v20110928-1505,"org.eclipse.ui.edit.undo",1503802137371
executed,command,org.eclipse.ui,3.7.0.v20110928-1505,"org.eclipse.ui.edit.undo",1503802137541
